573472 471577 470
211657 345470 443
240397 7480 443
572386 905030 525
331126 406400 441
388763 161995 443
549145 335738 470
532587 496595 470
940740 879834 507
950264 181748 525
18652 805479 509
163827 435233 449
517746 52377 470
397658 465845 449
401666 781870 509
126510 815681 509
567248 401534 470
60271 54044 322
40641 103136 351
956652 340942 525
970721 915489 507
214282 773017 509
27606 928504 525
532919 374764 470
994349 171869 525
295867 135741 443
847592 478018 525
538832 84297 470
510103 914201 525
548622 121133 470
806925 102203 509
886560 78643 525
210117 572019 470
550766 209998 470
265663 28581 443
214007 277472 443
532571 148507 470
247626 269304 407
7257 362611 443
478487 425693 444
91528 341440 443
738173 370738 509
638585 775776 504
720710 141969 509
36857 693992 509
24464 586387 470
478364 633827 509
81907 784873 509
942869 45478 525
296527 238838 407
392908 398420 405
248164 939953 525
463191 262797 449
3481 183340 383
624162 278781 470
506427 551160 470
747231 448346 509
291059 298689 358
251060 151904 443
892802 281958 525
594577 410601 470
368682 727437 509
819275 922552 525
899034 641536 525
928469 40241 525
587381 612360 403
814338 632884 504
177176 435299 449
581971 161564 470
664033 547823 509
555085 296959 470
347890 71181 443
142996 186756 383
379596 667411 509
60387 119700 354
133017 517905 470
194842 934779 525
438043 35155 449
473714 656734 509
179564 885693 525
43716 199472 383
991416 242557 525
620971 738476 509
16096 531453 470
427456 38223 449
423285 416957 356
368002 949300 525
495420 688940 509
966094 676523 525
647346 60679 509
174210 728700 509
963292 119046 525
297095 850286 525
425752 228038 449
275680 96953 443
277158 70451 443
186937 558102 470
311785 348711 441
919484 386615 525
272513 541768 470
939115 57191 525
619429 69907 470
540163 424177 470
23845 284702 443
960065 5773 525
349492 293742 441
423364 398730 449
75759 248104 443
527520 960144 525
469018 784955 509
690827 113421 509
784127 374504 509
916679 519429 525
806390 8618 509
96178 898513 525
211147 42627 383
794845 565160 509
378237 441596 449
225857 690626 509
256103 585314 470
3984 408439 443
936958 410183 525
552706 501656 470
237417 943592 525
316758 505006 449
424636 280205 449
248369 728076 509
901924 994776 507
224910 741235 509
11942 284214 443
569402 329436 470
414636 222571 449
785267 231736 509
775938 581698 509
861392 693153 525
854483 264408 525
314665 497908 449
374724 869080 525
554727 501453 470
39891 355341 443
100970 12638 351
927207 342556 525
798959 591391 509
770758 390114 509
956194 146669 525
330575 541034 470
18568 351442 443
955939 406113 525
806655 858516 525
63548 35150 340
958865 791419 525
764236 508625 509
116070 382780 443
840999 331507 525
633421 482275 509
193979 448345 449
808968 661314 504
502043 684423 509
836111 422917 509
297227 885754 525
144296 172265 383
184591 874911 525
801212 28183 509
95444 420206 449
353521 961725 525
509125 681678 509
424135 399265 449
293817 597996 470
318794 272783 389
707241 480355 509
239361 360003 441
905904 605983 525
146074 3494 375
568604 233253 470
300268 804736 509
664692 845742 525
424478 754458 509
610899 999588 525
124372 937484 525
300495 771719 509
719338 719600 274
66761 943858 525
720129 336679 509
327918 970897 525
858715 384460 525
500985 844739 525
887080 714397 525
770411 491526 509
443640 149561 449
713387 416833 509
486147 768303 509
953923 690753 525
970511 357525 525
82783 628614 509
890894 71507 525
513036 755257 509
775395 955282 525
758887 785408 468
157762 588185 470
758853 92919 509
343149 927357 525
240041 306965 407
243289 100845 443
62855 847742 525
452173 402457 449
188880 568055 470
475700 833443 509
715517 433615 509
150947 43299 375
713211 235867 509
20261 640051 509
500738 753030 509
319136 348469 441
907322 867337 445
29819 4538 308
630983 693006 442
393439 25767 443
66380 662356 509
327435 830747 509
915207 495502 525
667035 592018 509
394148 789189 509
718135 78092 509
414558 840405 525
556054 861357 525
264138 640896 509
423567 251972 449
717063 548185 509
857329 290847 525
499087 821000 509
266118 597974 470
479027 895960 525
908829 973615 507
676927 530374 509
752660 804641 468
782595 400148 509
716044 730169 411
852820 948752 507
615071 193149 470
276790 237424 407
264144 697699 509
255675 847585 525
425497 436353 387
948935 787352 525
406878 209901 443
60909 947529 525
102254 397767 443
237921 187792 443
772757 334916 509
590159 644945 509
64430 190007 383
268152 971241 525
646796 750826 504
177129 841635 525
746545 561026 509
